EESchema Schematic File Version 4
LIBS:main-cache
EELAYER 26 0
EELAYER END
$Descr A4 11693 8268
encoding utf-8
Sheet 3 4
Title ""
Date ""
Rev ""
Comp ""
Comment1 ""
Comment2 ""
Comment3 ""
Comment4 ""
$EndDescr
$Comp
L Device:LED D1
U 1 1 60BAD06A
P 4450 3950
F 0 "D1" V 4488 3833 50  0000 R CNN
F 1 "LED" V 4397 3833 50  0000 R CNN
F 2 "LED_THT:LED_D1.8mm_W1.8mm_H2.4mm_Horizontal_O1.27mm_Z1.6mm" H 4450 3950 50  0001 C CNN
F 3 "~" H 4450 3950 50  0001 C CNN
	1    4450 3950
	0    -1   -1   0   
$EndComp
$Comp
L Device:LED D2
U 1 1 60BAD21C
P 5500 4000
F 0 "D2" V 5538 3883 50  0000 R CNN
F 1 "LED" V 5447 3883 50  0000 R CNN
F 2 "LED_SMD:LED_0201_0603Metric" H 5500 4000 50  0001 C CNN
F 3 "~" H 5500 4000 50  0001 C CNN
	1    5500 4000
	0    -1   -1   0   
$EndComp
$Comp
L Device:LED D3
U 1 1 60BAD2E7
P 6700 4000
F 0 "D3" V 6738 3883 50  0000 R CNN
F 1 "LED" V 6647 3883 50  0000 R CNN
F 2 "LED_SMD:LED_0201_0603Metric" H 6700 4000 50  0001 C CNN
F 3 "~" H 6700 4000 50  0001 C CNN
	1    6700 4000
	0    -1   -1   0   
$EndComp
$Comp
L Device:R R7
U 1 1 60BAD3F9
P 4450 4700
F 0 "R7" H 4520 4746 50  0000 L CNN
F 1 "510" H 4520 4655 50  0000 L CNN
F 2 "Resistor_SMD:R_0201_0603Metric" V 4380 4700 50  0001 C CNN
F 3 "~" H 4450 4700 50  0001 C CNN
	1    4450 4700
	1    0    0    -1  
$EndComp
$Comp
L Device:R R8
U 1 1 60BAD67F
P 5500 4750
F 0 "R8" H 5570 4796 50  0000 L CNN
F 1 "510" H 5570 4705 50  0000 L CNN
F 2 "Resistor_SMD:R_0201_0603Metric" V 5430 4750 50  0001 C CNN
F 3 "~" H 5500 4750 50  0001 C CNN
	1    5500 4750
	1    0    0    -1  
$EndComp
$Comp
L Device:R R9
U 1 1 60BAD770
P 6700 4750
F 0 "R9" H 6770 4796 50  0000 L CNN
F 1 "510" H 6770 4705 50  0000 L CNN
F 2 "Resistor_SMD:R_0201_0603Metric" V 6630 4750 50  0001 C CNN
F 3 "~" H 6700 4750 50  0001 C CNN
	1    6700 4750
	1    0    0    -1  
$EndComp
$Comp
L power:GND #PWR0116
U 1 1 60BAD94D
P 5500 5450
F 0 "#PWR0116" H 5500 5200 50  0001 C CNN
F 1 "GND" H 5505 5277 50  0000 C CNN
F 2 "" H 5500 5450 50  0001 C CNN
F 3 "" H 5500 5450 50  0001 C CNN
	1    5500 5450
	1    0    0    -1  
$EndComp
Wire Wire Line
	4450 3800 5500 3800
Wire Wire Line
	6700 3800 6700 3850
Wire Wire Line
	4450 4100 4450 4550
Wire Wire Line
	5500 4150 5500 4600
Wire Wire Line
	6700 4150 6700 4600
Wire Wire Line
	4450 5300 6700 5300
Wire Wire Line
	6700 5300 6700 4900
Wire Wire Line
	5500 5450 5500 4900
Wire Wire Line
	5500 3850 5500 3800
Connection ~ 5500 3800
Wire Wire Line
	5500 3800 6700 3800
Wire Wire Line
	3350 4050 3350 3550
Wire Wire Line
	3350 3550 5500 3550
Wire Wire Line
	5500 3550 5500 3800
Wire Wire Line
	4450 4850 4450 5300
Text GLabel 3350 4050 3    50   Input ~ 0
vin(5v)
$EndSCHEMATC
